{
  "name": "lumberjack",
  "title": "Lumberjack🪓",
  "description": "",
  "version": "1.0.2",
  "minimumCoreVersion": "0.8.9",
  "compatibleCoreVersion": "9",
  "authors": [
  ],
  "dependencies": [
  ],
  "esmodules": [
    "/scripts/lumberjack.mjs"
  ],
  "scripts": [
  ],
  "styles": [
    "/styles/lumberjack.css"
  ],
  "languages": [
    {
      "lang": "en",
      "name": "English",
      "path": "languages/en.json"
    }
  ],
  "url": "https://gitlab.com/anathemamask/lumberjack",
  "manifest": "https://gitlab.com/anathemamask/lumberjack/-/raw/main/module.json",
  "download": "https://gitlab.com/anathemamask/lumberjack/-/archive/1.0.2/lumberjack-1.0.2.zip",
  "media": [
    {
      "type": "icon",
      "url": "https://avatars2.githubusercontent.com/u/71292812?s=400&u=ccdb4eeb7abf551ca8f314e5a9bfd0479a4d3d41&v=4"
    }
  ]
}